@startuml
'https://plantuml.com/use-case-diagram

class Contributeur{
    nom : text
    prénom : text
    date de naissance : date
    nationalité : text
}
note left of Contributeur
    Un contributeur est une personne
    ayant participé à la création
    d'une ressource.
    Il prend un type spécifique en fonction de la ressource.
    - auteur : pour un livre
    - réalisateur : pour un film
    - acteur : pour un film
    - compositeur : pour une musique
    - interprète : pour une musique
end note
Contributeur "1..*" -u- "1..*" Livre : Contribue >
Contributeur "1..*" -u- "1..*" EnregistrementMusical : Contribue >
Contributeur "1..*" -u- "1..*" Film : Contribue >

abstract class Ressource{
    code : text
    titre : text
    editeur : text
    genre : text
    code_de_classification : text
}
class Livre{
    ISBN : text
    résumé : text
    language_doc : text
}
class Film{
    longueur : integer (temps en s)
    synopsis : text
}
class EnregistrementMusical{
    longueur : integer (temps en s)
}
enum EtatExemplaire{
    neuf
    bon
    correct
    abimé
    tres_abime
}
class Exemplaire{
    etat : EtatExemplaire
}
Exemplaire "1..*" -r--* "  " Ressource
Ressource <|-- Livre
Ressource <|-- Film
Ressource <|-- EnregistrementMusical
Adhérent -u-|> Membre
class Adhérent{
    date de naissance : date
    numéro_telephone : text
    carte_adherent : text
}
Adhérent "1"-"*" Prêt : peut faire >
Prêt "*"-r-"1" Exemplaire : pointe_vers >
enum PretEtat{
    en cours
    fini
}
class Prêt{
    date_debut: date
    durée : integer (en jours)
    etat : PretEtat
}
Prêt "1"*-d-"0..2" Sanction : < lié
abstract class Sanction
note right of Sanction
    Un prêt peut être sanctionné
    de deux manières. Mais ne peut pas être
    sanctionné de deux mêmes manières
    en même temps.
end note
Sanction <|-l- Retard
Sanction <|-d- Deterioration
class Retard{
    date_retour: date
    durée_retard : integer (en jours)
}
enum RemboursementState{
    en attente
    fait
}
class Deterioration{
    etat_remboursement : RemboursementState
}
abstract class Membre{
    nom : text
    prenom : text
    adresse : text
    email : text
}
MembreDuPersonnel --|> Membre
class MembreDuPersonnel{
    administrateur : booléen
}
CompteUtilisateur -l-* Membre
class CompteUtilisateur{
    login : text
    mdp : text
}

@enduml